…
::: {.example} 
Considerando la base de datos `WHO`, calcular el promedio de la columna `Life_exp`, la mediana de la columna `Polio`, y el promedio y desviación estándar de `GDP`. Agrupa previamente por año (columna `Year`). 


```r
# Sin consideraro los NA
WHO %>% 
  group_by(Year) %>% 
  summarise(Promed = mean(Life_exp),
            Pol = median(Polio),
            GDP_prom = mean(GDP),
            GDP_sd = sd(GDP)) %>% 
  ungroup()
# # A tibble: 16 x 5
#    Year Promed   Pol GDP_prom GDP_sd
#   <dbl>  <dbl> <dbl>    <dbl>  <dbl>
# 1  2000   66.8    NA       NA     NA
# 2  2001   67.1    NA       NA     NA
# 3  2002   67.4    NA       NA     NA
# 4  2003   67.4    NA       NA     NA
# 5  2004   67.6    NA       NA     NA
# 6  2005   68.2    NA       NA     NA
# # ... with 10 more rows
```


```r
# Especificando el argumento na.rm = TRUE 
# para obviar los NA de cada columna
WHO %>% 
  group_by(Year) %>% 
  summarise(Promed = mean(Life_exp, na.rm = TRUE),
            Pol = median(Polio, na.rm = TRUE),
            GDP_prom = mean(GDP, na.rm = TRUE),
            GDP_sd = sd(GDP, na.rm = TRUE)) %>% 
  ungroup()
# # A tibble: 16 x 5
#    Year Promed   Pol GDP_prom GDP_sd
#   <dbl>  <dbl> <dbl>    <dbl>  <dbl>
# 1  2000   66.8    88    4709.  9182.
# 2  2001   67.1    89    4855.  8892.
# 3  2002   67.4    91    4599.  8541.
# 4  2003   67.4    91    4775.  9144.
# 5  2004   67.6    91    7056. 13504.
# 6  2005   68.2    93    7250. 13107.
# # ... with 10 more rows
```
…
