A.4 Cap. 6: Manejo de datos con tidyverse | Introducción a R para Ciencias
…
Carga la base de datos aids de la librería boot. Se pretenden obtener el promedio de las columnas delay, dud, time ey, por cuarto (quarter) y por año (year). Asegúrate de que la tabla esté reordenada de menor a mayor por año (year) y por cuarto (quarter).

Solución:

library(boot)
data("aids")

### Resultado
aids %>% 
  group_by(year, quarter) %>% 
  summarise_at(.vars = vars(delay, dud, time, y),
               .funs = lst(mean), na.rm=TRUE) %>% 
  arrange(year, quarter)
# # A tibble: 38 x 6
# # Groups:   year [10]
#    year quarter delay_mean dud_mean time_mean y_mean
#   <dbl>   <dbl>      <dbl>    <dbl>     <dbl>  <dbl>
# 1  1983       3       20.1        0         1  0.8  
# 2  1983       4       20.1        0         2  0.8  
# 3  1984       1       20.1        0         3  0.933
# 4  1984       2       20.1        0         4  1    
# 5  1984       3       20.1        0         5  2    
# 6  1984       4       20.1        0         6  2.6  
# # ... with 32 more rows
…
